{
  "status": 1,
  "data": {
    "user": {
      "total": 18,
      "per_page": 5,
      "current_page": 2,
      "last_page": 4,
      "from": 6,
      "to": 10,
      "data": [
        {
          "id": 1,
          "user_id": 27,
          "site_id": 1089,
          "title": "PERSIDANGAN PADI KEBANGSAAN 2017",
          "content": "Meneroka Potensi Eksport<br/><br/><br/>Klik url untuk more info: <br/>http://padi.mardi.gov.my",
          "type" : 0,
          "created_at": "2016-06-01 15:14:38",
          "updated_at": "2017-04-13 23:03:05",
          "user": {
            "id": 27,
            "fb_id": null,
            "fb_token": null,
            "ic_no": "998877665544",
            "dob": "1999-01-01",
            "gender_id": 1,
            "occupation_id": 110,
            "email": "TEST@gmail.com",
            "full_name": "NELLSEN",
            "verified": 1,
            "email_verified": 1,
            "event_verified": 1,
            "phone": "0102338716",
            "app_name": 1,
            "is_admin": 0,
            "is_volunteer": 0,
            "site_id": 227,
            "poster_group_id": 1228,
            "poster_group_ownership": "member",
            "remember_token": "hY0Jid2W42lVOJvJGEq1WNNoNb81FR2Zu9Gil6GOl30a7y91JUjHLdgEmOkV",
            "created_at": "2013-10-31 02:24:41",
            "updated_at": "2017-08-03 16:31:20",
            "site": {
              "id": 227,
              "code": "C05C008",
              "address": "Felda Jengka 2",
              "region_id": 3,
              "state": "Pahang",
              "cluster_id": 30,
              "email": "jengka2@pjk.com.my",
              "state_id": 506,
              "phase_id": 6,
              "app_name": 1,
              "status": 2,
              "created_at": "2013-10-29 16:20:51",
              "updated_at": "2017-07-27 20:38:10",
              "ipv4": "10.16.16.2"
            }
          }
        },
        {
          "id": 1689,
          "user_id": 27,
          "site_id": 1089,
          "title": "majlis buka puasa",
          "content": "<p>buka puasa 13/5/2016</p>",
          "excerpt": "<p>buka puasa 13/5/2016</p>",
          "approval": 1,
          "created_at": "2016-05-13 16:52:39",
          "updated_at": "2017-04-13 23:03:10",
          "user": {
            "id": 27,
            "fb_id": null,
            "fb_token": null,
            "ic_no": "998877665544",
            "dob": "1999-01-01",
            "gender_id": 1,
            "occupation_id": 110,
            "email": "TEST@gmail.com",
            "full_name": "NELLSEN",
            "verified": 1,
            "email_verified": 1,
            "event_verified": 1,
            "phone": "0102338716",
            "app_name": 1,
            "is_admin": 0,
            "is_volunteer": 0,
            "site_id": 227,
            "poster_group_id": 1228,
            "poster_group_ownership": "member",
            "remember_token": "hY0Jid2W42lVOJvJGEq1WNNoNb81FR2Zu9Gil6GOl30a7y91JUjHLdgEmOkV",
            "created_at": "2013-10-31 02:24:41",
            "updated_at": "2017-08-03 16:31:20",
            "site": {
              "id": 227,
              "code": "C05C008",
              "address": "Felda Jengka 2",
              "region_id": 3,
              "state": "Pahang",
              "cluster_id": 30,
              "email": "jengka2@pjk.com.my",
              "state_id": 506,
              "phase_id": 6,
              "app_name": 1,
              "status": 2,
              "created_at": "2013-10-29 16:20:51",
              "updated_at": "2017-07-27 20:38:10",
              "ipv4": "10.16.16.2"
            }
          }
        },
        {
          "id": 1460,
          "user_id": 27,
          "site_id": 1089,
          "title": "Badminton Malam Ni",
          "content": "<p>Dijemput kepada semua warga kampung untuk beriadah badminton malam ni. Ajak semua</p>\n<p>&nbsp;</p>\n<p><img src=\"http://dashboard.pi1m.my/image_upload/create-announcement/Badminton_Semifinal_Pan_2007.jpg\" alt=\"\" width=\"475\" height=\"310\" /></p>\n<p>Artis jemputan, NIK!!</p>\n<p><img src=\"http://dashboard.pi1m.my/image_upload/create-announcement/59_806515-badminton-racket-and-shuttlecock-isolated-on-a-black-background.jpg\" alt=\"\" width=\"474\" height=\"316\" /></p>",
          "excerpt": "<p>Dijemput kepada semua warga kampung untuk beriadah badminton malam ni. Ajak semua</p>\n<p>&nbsp;</p>\n<p><img src=\"/image_upload/create-announcement/Badminton_Semifinal_Pan_2007.jpg\" alt=\"\" ...",
          "approval": 1,
          "created_at": "2016-04-28 12:47:32",
          "updated_at": "2016-04-28 12:47:32",
          "user": {
            "id": 27,
            "fb_id": null,
            "fb_token": null,
            "ic_no": "998877665544",
            "dob": "1999-01-01",
            "gender_id": 1,
            "occupation_id": 110,
            "email": "TEST@gmail.com",
            "full_name": "NELLSEN",
            "verified": 1,
            "email_verified": 1,
            "event_verified": 1,
            "phone": "0102338716",
            "app_name": 1,
            "is_admin": 0,
            "is_volunteer": 0,
            "site_id": 227,
            "poster_group_id": 1228,
            "poster_group_ownership": "member",
            "remember_token": "hY0Jid2W42lVOJvJGEq1WNNoNb81FR2Zu9Gil6GOl30a7y91JUjHLdgEmOkV",
            "created_at": "2013-10-31 02:24:41",
            "updated_at": "2017-08-03 16:31:20",
            "site": {
              "id": 227,
              "code": "C05C008",
              "address": "Felda Jengka 2",
              "region_id": 3,
              "state": "Pahang",
              "cluster_id": 30,
              "email": "jengka2@pjk.com.my",
              "state_id": 506,
              "phase_id": 6,
              "app_name": 1,
              "status": 2,
              "created_at": "2013-10-29 16:20:51",
              "updated_at": "2017-07-27 20:38:10",
              "ipv4": "10.16.16.2"
            }
          }
        },
        {
          "id": 1055,
          "user_id": 27,
          "site_id": 196,
          "title": "testing",
          "content": "<p>testing</p>",
          "excerpt": "<p>testing</p>",
          "approval": 1,
          "created_at": "2016-04-08 10:35:08",
          "updated_at": "2017-04-28 01:00:18",
          "user": {
            "id": 27,
            "fb_id": null,
            "fb_token": null,
            "ic_no": "998877665544",
            "dob": "1999-01-01",
            "gender_id": 1,
            "occupation_id": 110,
            "email": "TEST@gmail.com",
            "full_name": "NELLSEN",
            "verified": 1,
            "email_verified": 1,
            "event_verified": 1,
            "phone": "0102338716",
            "app_name": 1,
            "is_admin": 0,
            "is_volunteer": 0,
            "site_id": 227,
            "poster_group_id": 1228,
            "poster_group_ownership": "member",
            "remember_token": "hY0Jid2W42lVOJvJGEq1WNNoNb81FR2Zu9Gil6GOl30a7y91JUjHLdgEmOkV",
            "created_at": "2013-10-31 02:24:41",
            "updated_at": "2017-08-03 16:31:20",
            "site": {
              "id": 227,
              "code": "C05C008",
              "address": "Felda Jengka 2",
              "region_id": 3,
              "state": "Pahang",
              "cluster_id": 30,
              "email": "jengka2@pjk.com.my",
              "state_id": 506,
              "phase_id": 6,
              "app_name": 1,
              "status": 2,
              "created_at": "2013-10-29 16:20:51",
              "updated_at": "2017-07-27 20:38:10",
              "ipv4": "10.16.16.2"
            }
          }
        },
        {
          "id": 671,
          "user_id": 27,
          "site_id": 227,
          "title": "Jemputan makan malam",
          "content": "<p>Tempat : dewan serbaguna jengka 2</p>\n<p>Masa : 9 malam</p>\n<p><img src=\"http://dashboard.pi1m.my/image_upload/create-announcement/Lighthouse.jpg\" alt=\"\" /></p>",
          "excerpt": "<p>Tempat : dewan serbaguna jengka 2</p>\n<p>Masa : 9 malam</p>\n<p><img src=\"/image_upload/create-announcement/Lighthouse.jpg\" alt=\"\" /></p>",
          "approval": 1,
          "created_at": "2016-03-02 11:34:37",
          "updated_at": "2016-03-02 11:35:45",
          "user": {
            "id": 27,
            "fb_id": null,
            "fb_token": null,
            "ic_no": "998877665544",
            "dob": "1999-01-01",
            "gender_id": 1,
            "occupation_id": 110,
            "email": "TEST@gmail.com",
            "full_name": "NELLSEN",
            "verified": 1,
            "email_verified": 1,
            "event_verified": 1,
            "phone": "0102338716",
            "app_name": 1,
            "is_admin": 0,
            "is_volunteer": 0,
            "site_id": 227,
            "poster_group_id": 1228,
            "poster_group_ownership": "member",
            "remember_token": "hY0Jid2W42lVOJvJGEq1WNNoNb81FR2Zu9Gil6GOl30a7y91JUjHLdgEmOkV",
            "created_at": "2013-10-31 02:24:41",
            "updated_at": "2017-08-03 16:31:20",
            "site": {
              "id": 227,
              "code": "C05C008",
              "address": "Felda Jengka 2",
              "region_id": 3,
              "state": "Pahang",
              "cluster_id": 30,
              "email": "jengka2@pjk.com.my",
              "state_id": 506,
              "phase_id": 6,
              "app_name": 1,
              "status": 2,
              "created_at": "2013-10-29 16:20:51",
              "updated_at": "2017-07-27 20:38:10",
              "ipv4": "10.16.16.2"
            }
          }
        }
      ]
    },
    "admin": {
      "total": 5,
      "per_page": 5,
      "current_page": 1,
      "last_page": 1,
      "from": 1,
      "to": 5,
      "data": [
        {
          "id": 4259,
          "user_id": 231,
          "is_site": 1,
          "title": "selamat hari raya aidilfitri",
          "content": "<p>selamat hari raya aidilfitri</p>",
          "created_at": "2017-06-22 08:06:40",
          "updated_at": "2017-06-22 08:06:40",
          "user": {
            "id": 231,
            "email": "jengka2@pi1m.com.my",
            "permissions": "",
            "activated": 1,
            "activation_code": null,
            "activated_at": "2015-05-19 10:02:20",
            "last_login": "2017-07-21 12:02:10",
            "persist_code": "$2y$10$4bRixvjBInt1TcoVm8hSMuELBjoVvpdHVDxtVkXrxe01i0nXKbECy",
            "reset_password_code": null,
            "first_name": "Felda Jengka 2",
            "last_name": "",
            "site_id": 227,
            "region_id": null,
            "created_at": "2015-05-19 10:02:20",
            "updated_at": "2017-07-21 12:02:10"
          }
        },
        {
          "id": 25,
          "user_id": 2,
          "is_site": 0,
          "title": "Selamat Datang Ke Pusat Internet 1 Malaysia",
          "content": "<p>Selamat Datang Ke Pusat Internet 1 Malaysia. Kami mengucapkan ribuan terima kasih atas keprihatinan anda.</p>",
          "created_at": "2015-11-27 07:01:32",
          "updated_at": "2016-02-13 00:04:48",
          "user": {
            "id": 2,
            "email": "dashboard@msd.net.my",
            "permissions": "",
            "activated": 1,
            "activation_code": null,
            "activated_at": "2014-06-23 08:35:01",
            "last_login": "2017-08-03 16:20:32",
            "persist_code": "$2y$10$kHEyT2VTLCv9senDE7Mvae7o61fEMHQwA/fjETxdL0ODrFqYsfAka",
            "reset_password_code": null,
            "first_name": "Admin",
            "last_name": "Pi1mdashboard",
            "site_id": 1089,
            "region_id": null,
            "created_at": "2014-06-23 08:34:51",
            "updated_at": "2017-08-03 16:20:32"
          }
        },
        {
          "id": 24,
          "user_id": 3,
          "is_site": 1,
          "title": "Sambutan Hari Kebangsaan 2015",
          "content": "<p>as</p>",
          "created_at": "2015-09-10 05:00:31",
          "updated_at": "2016-02-01 17:07:55",
          "user": {
            "id": 3,
            "email": "jengka2@ingeniworks.com.my",
            "permissions": "",
            "activated": 1,
            "activation_code": null,
            "activated_at": "2014-08-28 10:37:10",
            "last_login": "2017-07-19 15:15:17",
            "persist_code": "$2y$10$O4E9hVEw55uvdQ6Q5z4XaeNYUG1r1D0cr5hNmbQve/JLVxXmvC3RK",
            "reset_password_code": null,
            "first_name": "Admin",
            "last_name": "Jengka 2",
            "site_id": 227,
            "region_id": null,
            "created_at": "2014-08-28 10:36:58",
            "updated_at": "2017-07-19 15:15:17"
          }
        },
        {
          "id": 22,
          "user_id": 3,
          "is_site": 1,
          "title": "Help",
          "content": "<p>Arghhhh</p>",
          "created_at": "2015-05-13 09:49:09",
          "updated_at": "2016-02-01 17:08:09",
          "user": {
            "id": 3,
            "email": "jengka2@ingeniworks.com.my",
            "permissions": "",
            "activated": 1,
            "activation_code": null,
            "activated_at": "2014-08-28 10:37:10",
            "last_login": "2017-07-19 15:15:17",
            "persist_code": "$2y$10$O4E9hVEw55uvdQ6Q5z4XaeNYUG1r1D0cr5hNmbQve/JLVxXmvC3RK",
            "reset_password_code": null,
            "first_name": "Admin",
            "last_name": "Jengka 2",
            "site_id": 227,
            "region_id": null,
            "created_at": "2014-08-28 10:36:58",
            "updated_at": "2017-07-19 15:15:17"
          }
        },
        {
          "id": 6,
          "user_id": 3,
          "is_site": 1,
          "title": "Site announcements for jengka 2",
          "content": "<p>In vitae lorem neque. Pellentesque habitant morbi tristique senectus et netus et malesuada fames ac turpis egestas. Nullam placerat lorem mauris, eget volutpat odio sodales ac. Aliquam erat volutpat. Sed vel lacinia elit. Quisque sem erat, laoreet quis quam id, posuere interdum ligula. Curabitur elementum tortor magna, a tristique velit facilisis eget. Nullam blandit felis eget velit tincidunt, sed tincidunt urna faucibus. Ut at turpis ipsum. Nulla eu viverra lorem, sed laoreet tortor. In a vehicula lacus. Fusce tempus ipsum vel odio accumsan, et convallis libero luctus. Maecenas metus arcu, tempus id dui eu, porttitor dictum mi. Quisque in diam ac velit ornare pellentesque. Nunc finibus, felis eu feugiat mattis, diam leo tempus diam, a consectetur purus sem in enim. Quisque nec porta ipsum, sed lobortis est.</p>",
          "created_at": "2014-09-03 07:47:45",
          "updated_at": "2015-11-05 13:33:33",
          "user": {
            "id": 3,
            "email": "jengka2@ingeniworks.com.my",
            "permissions": "",
            "activated": 1,
            "activation_code": null,
            "activated_at": "2014-08-28 10:37:10",
            "last_login": "2017-07-19 15:15:17",
            "persist_code": "$2y$10$O4E9hVEw55uvdQ6Q5z4XaeNYUG1r1D0cr5hNmbQve/JLVxXmvC3RK",
            "reset_password_code": null,
            "first_name": "Admin",
            "last_name": "Jengka 2",
            "site_id": 227,
            "region_id": null,
            "created_at": "2014-08-28 10:36:58",
            "updated_at": "2017-07-19 15:15:17"
          }
        }
      ]
    }
  }
}